/Users/nguyenhuyquang/Code/Java/svpcpl/src/api/API_V1.java
/Users/nguyenhuyquang/Code/Java/svpcpl/src/dao/FeedDAO.java
/Users/nguyenhuyquang/Code/Java/svpcpl/src/controller/CommentController.java
/Users/nguyenhuyquang/Code/Java/svpcpl/src/model/configs/Configs.java
/Users/nguyenhuyquang/Code/Java/svpcpl/src/dao/UserDAO.java
/Users/nguyenhuyquang/Code/Java/svpcpl/src/controller/QuestionController.java
/Users/nguyenhuyquang/Code/Java/svpcpl/src/controller/FeedController.java
/Users/nguyenhuyquang/Code/Java/svpcpl/src/dbconnector/DBConnector.java
/Users/nguyenhuyquang/Code/Java/svpcpl/src/controller/ConfigController.java
/Users/nguyenhuyquang/Code/Java/svpcpl/src/dao/CommentDAO.java
/Users/nguyenhuyquang/Code/Java/svpcpl/src/dao/ConfigDAO.java
/Users/nguyenhuyquang/Code/Java/svpcpl/src/model/configs/Config.java
/Users/nguyenhuyquang/Code/Java/svpcpl/src/controller/UserController.java
/Users/nguyenhuyquang/Code/Java/svpcpl/src/model/baseobject/BaseObject.java
/Users/nguyenhuyquang/Code/Java/svpcpl/src/dao/QuestionDAO.java
/Users/nguyenhuyquang/Code/Java/svpcpl/src/controller/LawController.java
/Users/nguyenhuyquang/Code/Java/svpcpl/src/dao/CodeDAO.java
